<?xml version="1.0" standalone="no"?>
<!DOCTYPE svg PUBLIC "-//W3C//DTD SVG 20010904//EN"
 "http://www.w3.org/TR/2001/REC-SVG-20010904/DTD/svg10.dtd">
<svg version="1.0" xmlns="http://www.w3.org/2000/svg"
 width="500.000000pt" height="500.000000pt" viewBox="0 0 500.000000 500.000000"
 preserveAspectRatio="xMidYMid meet">
<metadata>
Created by potrace 1.11, written by Peter Selinger 2001-2013
</metadata>
<g transform="translate(0.000000,500.000000) scale(0.100000,-0.100000)"
fill="#000000" stroke="none">
<path d="M2509 4581 c-19 -10 -42 -29 -52 -43 -84 -113 -65 -358 33 -428 38
-27 99 -26 135 2 28 22 75 109 75 141 0 15 11 17 88 17 l88 0 13 -50 c18 -70
77 -130 128 -130 57 0 97 30 129 97 24 51 28 70 28 153 1 85 -3 102 -27 152
-39 79 -79 105 -149 99 -46 -3 -107 -90 -122 -173 l-7 -38 -78 0 -78 0 -16 58
c-37 129 -110 185 -188 143z"/>
<path d="M3509 4141 c-111 -36 -209 -129 -246 -233 -28 -82 -24 -217 9 -288
37 -81 108 -154 186 -192 62 -31 74 -33 167 -33 93 0 105 2 166 32 80 39 150
111 187 191 23 50 27 70 27 157 0 87 -4 107 -26 155 -86 181 -285 270 -470
211z"/>
<path d="M2770 3875 c-1 -99 -2 -202 -4 -230 -13 -195 -30 -371 -51 -512 -3
-23 -8 -55 -10 -70 -2 -15 -7 -48 -10 -73 -4 -25 -9 -56 -11 -70 -23 -124 -23
-580 1 -745 2 -16 6 -54 10 -84 47 -444 180 -777 407 -1026 28 -30 53 -55 57
-55 3 0 6 123 6 273 0 245 4 332 20 407 2 13 7 42 11 65 8 60 64 222 89 258
18 27 27 32 61 31 44 0 249 -45 612 -134 39 -10 72 -14 72 -9 0 4 -42 63 -92
129 -257 336 -346 503 -295 554 26 26 195 144 262 183 106 61 219 113 331 152
56 20 103 40 104 46 3 13 -42 37 -106 57 -188 60 -501 201 -681 308 -208 123
-428 310 -540 458 -31 42 -98 119 -149 171 l-93 96 -1 -180z"/>
<path d="M2225 3933 c-146 -77 -158 -273 -22 -357 85 -52 182 -41 252 29 102
102 70 276 -61 331 -44 19 -132 17 -169 -3z"/>
<path d="M1287 3539 c-67 -16 -124 -48 -177 -99 -195 -190 -139 -512 110 -628
48 -23 69 -26 160 -26 96 -1 110 2 159 28 205 107 281 341 174 537 -27 51 -98
123 -148 150 -78 43 -190 59 -278 38z"/>
<path d="M2145 3358 c-39 -40 -105 -116 -146 -168 -256 -321 -624 -560 -1154
-749 -123 -44 -200 -81 -189 -90 5 -4 52 -23 104 -40 124 -43 253 -104 369
-175 85 -52 195 -130 229 -163 23 -22 16 -69 -22 -150 -50 -106 -82 -154 -211
-323 -126 -165 -159 -210 -154 -214 2 -2 67 12 144 31 77 18 149 35 160 37 11
3 52 12 90 21 39 9 79 19 90 21 11 2 62 13 113 25 51 11 103 18 116 15 54 -13
137 -286 152 -500 3 -34 5 -169 5 -301 l1 -240 65 70 c185 197 323 502 373
822 6 38 13 78 15 89 2 12 6 48 10 80 4 33 8 68 10 79 10 69 19 265 19 420 0
201 -7 303 -29 450 -24 157 -33 225 -40 300 -4 39 -8 81 -10 95 -11 76 -19
249 -20 427 0 119 -4 203 -9 203 -5 0 -42 -33 -81 -72z"/>
</g>
</svg>
